Deprecated and renamed functions in rgeoboundaries 2.0.0 — deprecated • rgeoboundaries
…
The tidyverse team. The Tidyverse Style Guide,
https://style.tidyverse.org/. Accessed 14 Nov. 2025.

Wickham, Hadley. “Tidy Design Principles.” Tidyverse.org, 2025,
https://design.tidyverse.org/. Accessed 14 Nov. 2025.

    Examples

# Show deprecation messages
gb_metadata()
#> Warning: `gb_metadata()` was deprecated in rgeoboundaries 2.0.0.
#> ℹ Please use `gb_get_metadata()` instead.
#> # A tibble: 715 × 32
#>    boundaryID       boundaryName boundaryISO boundaryYearRepresen…¹ boundaryType
#>    <chr>            <chr>        <chr>       <chr>                  <chr>       
#>  1 ABW-ADM0-133965… Aruba        ABW         2021                   ADM0        
#>  2 AFG-ADM0-778584… Afghanistan  AFG         2014                   ADM0        
#>  3 AFG-ADM1-126533… Afghanistan  AFG         2007                   ADM1        
#>  4 AFG-ADM2-176988… Afghanistan  AFG         2014                   ADM2        
#>  5 AGO-ADM0-711927… Angola       AGO         2021                   ADM0        
#>  6 AGO-ADM1-264088… Angola       AGO         2021                   ADM1        
#>  7 AGO-ADM2-914247… Angola       AGO         2006                   ADM2        
#>  8 AGO-ADM3-770603… Angola       AGO         2014                   ADM3        
#>  9 AIA-ADM0-967247… Anguilla     AIA         2021                   ADM0        
#> 10 ALB-ADM0-442218… Albania      ALB         2003                   ADM0        
#> # ℹ 705 more rows
#> # ℹ abbreviated name: ¹​boundaryYearRepresented
#> # ℹ 27 more variables: boundaryCanonical <chr>, boundarySource <chr>,
#> #   boundaryLicense <chr>, licenseDetail <chr>, licenseSource <chr>,
#> #   boundarySourceURL <chr>, sourceDataUpdateDate <dttm>, buildDate <date>,
#> #   Continent <chr>, `UNSDG-region` <chr>, `UNSDG-subregion` <chr>,
#> #   worldBankIncomeGroup <chr>, admUnitCount <dbl>, meanVertices <dbl>, …
…
