Get individual country files from geoBoundaries — gb_get • rgeoboundaries
…
# \donttest{
# Map level 2 in Sri Lanka
sri_lanka <- gb_get(
  "Sri Lanka",
  adm_lvl = 2,
  simplified = TRUE
)

sri_lanka
#> Simple feature collection with 25 features and 5 fields
#> Geometry type: MULTIPOLYGON
#> Dimension:     XY
#> Bounding box:  xmin: 79.65102 ymin: 5.919017 xmax: 81.87896 ymax: 9.835791
#> Geodetic CRS:  WGS 84
#> # A tibble: 25 × 6
#>    shapeName     shapeISO shapeID shapeGroup shapeType                  geometry
#>  * <chr>         <chr>    <chr>   <chr>      <chr>            <MULTIPOLYGON [°]>
#>  1 Jaffna Distr… LK-41    463711… LKA        ADM2      (((79.7152 9.529465, 79.…
#>  2 Kilinochchi … LK-42    463711… LKA        ADM2      (((80.01015 9.472403, 80…
#>  3 Mannar Distr… LK-43    463711… LKA        ADM2      (((80.11535 9.209068, 80…
#>  4 Mullaitivu D… LK-45    463711… LKA        ADM2      (((80.61353 9.456581, 80…
#>  5 Vavuniya Dis… LK-44    463711… LKA        ADM2      (((80.23541 8.680412, 80…
#>  6 Galle Distri… LK-31    463711… LKA        ADM2      (((79.98757 6.440352, 79…
#>  7 Hambantota D… LK-33    463711… LKA        ADM2      (((80.67006 6.306029, 80…
#>  8 Matara Distr… LK-32    463711… LKA        ADM2      (((80.3818 5.965264, 80.…
#>  9 Ampara Distr… LK-52    463711… LKA        ADM2      (((81.70788 6.51073, 81.…
#> 10 Anuradhapura… LK-71    463711… LKA        ADM2      (((80.03237 8.527211, 80…
#> # ℹ 15 more rows
…
